33
Molecular XYZ file created by GNI Generator for (7|3,3,3)
  C      -3.68926822      -6.39000000       0.00000000
  C      -1.22975607      -6.39000000       0.00000000
  C       1.22975607      -6.39000000       0.00000000
  C       3.68926822      -6.39000000       0.00000000
  C      -4.91902429      -7.10000000       0.00000000
  C      -2.45951215      -7.10000000       0.00000000
  C       0.00000000      -7.10000000       0.00000000
  C       2.45951215      -7.10000000       0.00000000
  C       4.91902429      -7.10000000       0.00000000
  C      -4.91902429      -8.52000000       0.00000000
  C      -2.45951215      -8.52000000       0.00000000
  C       0.00000000      -8.52000000       0.00000000
  C       2.45951215      -8.52000000       0.00000000
  C       4.91902429      -8.52000000       0.00000000
  C      -3.68926822      -9.23000000       0.00000000
  C      -1.22975607      -9.23000000       0.00000000
  C       1.22975607      -9.23000000       0.00000000
  C       3.68926822      -9.23000000       0.00000000
  C      -3.68926822     -10.65000000       0.00000000
  C      -1.22975607     -10.65000000       0.00000000
  C       1.22975607     -10.65000000       0.00000000
  C       3.68926822     -10.65000000       0.00000000
  C      -2.45951215     -11.36000000       0.00000000
  C       0.00000000     -11.36000000       0.00000000
  C       2.45951215     -11.36000000       0.00000000
  C      -2.45951215     -12.78000000       0.00000000
  C       0.00000000     -12.78000000       0.00000000
  C       2.45951215     -12.78000000       0.00000000
  C      -1.22975607     -13.49000000       0.00000000
  C       1.22975607     -13.49000000       0.00000000
  C      -1.22975607     -14.91000000       0.00000000
  C       1.22975607     -14.91000000       0.00000000
  C       0.00000000     -15.62000000       0.00000000
