46
Molecular XYZ file created by GNI Generator for (5|0,0,0)
  C       0.00000000       0.00000000       0.00000000
  C      -1.22975607      -0.71000000       0.00000000
  C       1.22975607      -0.71000000       0.00000000
  C      -1.22975607      -2.13000000       0.00000000
  C       1.22975607      -2.13000000       0.00000000
  C      -2.45951215      -2.84000000       0.00000000
  C       0.00000000      -2.84000000       0.00000000
  C       2.45951215      -2.84000000       0.00000000
  C      -2.45951215      -4.26000000       0.00000000
  C       0.00000000      -4.26000000       0.00000000
  C       2.45951215      -4.26000000       0.00000000
  C      -3.68926822      -4.97000000       0.00000000
  C      -1.22975607      -4.97000000       0.00000000
  C       1.22975607      -4.97000000       0.00000000
  C       3.68926822      -4.97000000       0.00000000
  C      -3.68926822      -6.39000000       0.00000000
  C      -1.22975607      -6.39000000       0.00000000
  C       1.22975607      -6.39000000       0.00000000
  C       3.68926822      -6.39000000       0.00000000
  C      -4.91902429      -7.10000000       0.00000000
  C      -2.45951215      -7.10000000       0.00000000
  C       0.00000000      -7.10000000       0.00000000
  C       2.45951215      -7.10000000       0.00000000
  C       4.91902429      -7.10000000       0.00000000
  C      -4.91902429      -8.52000000       0.00000000
  C      -2.45951215      -8.52000000       0.00000000
  C       0.00000000      -8.52000000       0.00000000
  C       2.45951215      -8.52000000       0.00000000
  C       4.91902429      -8.52000000       0.00000000
  C      -6.14878037      -9.23000000       0.00000000
  C      -3.68926822      -9.23000000       0.00000000
  C      -1.22975607      -9.23000000       0.00000000
  C       1.22975607      -9.23000000       0.00000000
  C       3.68926822      -9.23000000       0.00000000
  C       6.14878037      -9.23000000       0.00000000
  C      -6.14878037     -10.65000000       0.00000000
  C      -3.68926822     -10.65000000       0.00000000
  C      -1.22975607     -10.65000000       0.00000000
  C       1.22975607     -10.65000000       0.00000000
  C       3.68926822     -10.65000000       0.00000000
  C       6.14878037     -10.65000000       0.00000000
  C      -4.91902429     -11.36000000       0.00000000
  C      -2.45951215     -11.36000000       0.00000000
  C       0.00000000     -11.36000000       0.00000000
  C       2.45951215     -11.36000000       0.00000000
  C       4.91902429     -11.36000000       0.00000000
