141
Molecular XYZ file created by GNI Generator for (10|0,0,0)
  C       0.00000000       0.00000000       0.00000000
  C      -1.22975607      -0.71000000       0.00000000
  C       1.22975607      -0.71000000       0.00000000
  C      -1.22975607      -2.13000000       0.00000000
  C       1.22975607      -2.13000000       0.00000000
  C      -2.45951215      -2.84000000       0.00000000
  C       0.00000000      -2.84000000       0.00000000
  C       2.45951215      -2.84000000       0.00000000
  C      -2.45951215      -4.26000000       0.00000000
  C       0.00000000      -4.26000000       0.00000000
  C       2.45951215      -4.26000000       0.00000000
  C      -3.68926822      -4.97000000       0.00000000
  C      -1.22975607      -4.97000000       0.00000000
  C       1.22975607      -4.97000000       0.00000000
  C       3.68926822      -4.97000000       0.00000000
  C      -3.68926822      -6.39000000       0.00000000
  C      -1.22975607      -6.39000000       0.00000000
  C       1.22975607      -6.39000000       0.00000000
  C       3.68926822      -6.39000000       0.00000000
  C      -4.91902429      -7.10000000       0.00000000
  C      -2.45951215      -7.10000000       0.00000000
  C       0.00000000      -7.10000000       0.00000000
  C       2.45951215      -7.10000000       0.00000000
  C       4.91902429      -7.10000000       0.00000000
  C      -4.91902429      -8.52000000       0.00000000
  C      -2.45951215      -8.52000000       0.00000000
  C       0.00000000      -8.52000000       0.00000000
  C       2.45951215      -8.52000000       0.00000000
  C       4.91902429      -8.52000000       0.00000000
  C      -6.14878037      -9.23000000       0.00000000
  C      -3.68926822      -9.23000000       0.00000000
  C      -1.22975607      -9.23000000       0.00000000
  C       1.22975607      -9.23000000       0.00000000
  C       3.68926822      -9.23000000       0.00000000
  C       6.14878037      -9.23000000       0.00000000
  C      -6.14878037     -10.65000000       0.00000000
  C      -3.68926822     -10.65000000       0.00000000
  C      -1.22975607     -10.65000000       0.00000000
  C       1.22975607     -10.65000000       0.00000000
  C       3.68926822     -10.65000000       0.00000000
  C       6.14878037     -10.65000000       0.00000000
  C      -7.37853644     -11.36000000       0.00000000
  C      -4.91902429     -11.36000000       0.00000000
  C      -2.45951215     -11.36000000       0.00000000
  C       0.00000000     -11.36000000       0.00000000
  C       2.45951215     -11.36000000       0.00000000
  C       4.91902429     -11.36000000       0.00000000
  C       7.37853644     -11.36000000       0.00000000
  C      -7.37853644     -12.78000000       0.00000000
  C      -4.91902429     -12.78000000       0.00000000
  C      -2.45951215     -12.78000000       0.00000000
  C       0.00000000     -12.78000000       0.00000000
  C       2.45951215     -12.78000000       0.00000000
  C       4.91902429     -12.78000000       0.00000000
  C       7.37853644     -12.78000000       0.00000000
  C      -8.60829251     -13.49000000       0.00000000
  C      -6.14878037     -13.49000000       0.00000000
  C      -3.68926822     -13.49000000       0.00000000
  C      -1.22975607     -13.49000000       0.00000000
  C       1.22975607     -13.49000000       0.00000000
  C       3.68926822     -13.49000000       0.00000000
  C       6.14878037     -13.49000000       0.00000000
  C       8.60829251     -13.49000000       0.00000000
  C      -8.60829251     -14.91000000       0.00000000
  C      -6.14878037     -14.91000000       0.00000000
  C      -3.68926822     -14.91000000       0.00000000
  C      -1.22975607     -14.91000000       0.00000000
  C       1.22975607     -14.91000000       0.00000000
  C       3.68926822     -14.91000000       0.00000000
  C       6.14878037     -14.91000000       0.00000000
  C       8.60829251     -14.91000000       0.00000000
  C      -9.83804859     -15.62000000       0.00000000
  C      -7.37853644     -15.62000000       0.00000000
  C      -4.91902429     -15.62000000       0.00000000
  C      -2.45951215     -15.62000000       0.00000000
  C       0.00000000     -15.62000000       0.00000000
  C       2.45951215     -15.62000000       0.00000000
  C       4.91902429     -15.62000000       0.00000000
  C       7.37853644     -15.62000000       0.00000000
  C       9.83804859     -15.62000000       0.00000000
  C      -9.83804859     -17.04000000       0.00000000
  C      -7.37853644     -17.04000000       0.00000000
  C      -4.91902429     -17.04000000       0.00000000
  C      -2.45951215     -17.04000000       0.00000000
  C       0.00000000     -17.04000000       0.00000000
  C       2.45951215     -17.04000000       0.00000000
  C       4.91902429     -17.04000000       0.00000000
  C       7.37853644     -17.04000000       0.00000000
  C       9.83804859     -17.04000000       0.00000000
  C     -11.06780466     -17.75000000       0.00000000
  C      -8.60829251     -17.75000000       0.00000000
  C      -6.14878037     -17.75000000       0.00000000
  C      -3.68926822     -17.75000000       0.00000000
  C      -1.22975607     -17.75000000       0.00000000
  C       1.22975607     -17.75000000       0.00000000
  C       3.68926822     -17.75000000       0.00000000
  C       6.14878037     -17.75000000       0.00000000
  C       8.60829251     -17.75000000       0.00000000
  C      11.06780466     -17.75000000       0.00000000
  C     -11.06780466     -19.17000000       0.00000000
  C      -8.60829251     -19.17000000       0.00000000
  C      -6.14878037     -19.17000000       0.00000000
  C      -3.68926822     -19.17000000       0.00000000
  C      -1.22975607     -19.17000000       0.00000000
  C       1.22975607     -19.17000000       0.00000000
  C       3.68926822     -19.17000000       0.00000000
  C       6.14878037     -19.17000000       0.00000000
  C       8.60829251     -19.17000000       0.00000000
  C      11.06780466     -19.17000000       0.00000000
  C     -12.29756073     -19.88000000       0.00000000
  C      -9.83804859     -19.88000000       0.00000000
  C      -7.37853644     -19.88000000       0.00000000
  C      -4.91902429     -19.88000000       0.00000000
  C      -2.45951215     -19.88000000       0.00000000
  C       0.00000000     -19.88000000       0.00000000
  C       2.45951215     -19.88000000       0.00000000
  C       4.91902429     -19.88000000       0.00000000
  C       7.37853644     -19.88000000       0.00000000
  C       9.83804859     -19.88000000       0.00000000
  C      12.29756073     -19.88000000       0.00000000
  C     -12.29756073     -21.30000000       0.00000000
  C      -9.83804859     -21.30000000       0.00000000
  C      -7.37853644     -21.30000000       0.00000000
  C      -4.91902429     -21.30000000       0.00000000
  C      -2.45951215     -21.30000000       0.00000000
  C       0.00000000     -21.30000000       0.00000000
  C       2.45951215     -21.30000000       0.00000000
  C       4.91902429     -21.30000000       0.00000000
  C       7.37853644     -21.30000000       0.00000000
  C       9.83804859     -21.30000000       0.00000000
  C      12.29756073     -21.30000000       0.00000000
  C     -11.06780466     -22.01000000       0.00000000
  C      -8.60829251     -22.01000000       0.00000000
  C      -6.14878037     -22.01000000       0.00000000
  C      -3.68926822     -22.01000000       0.00000000
  C      -1.22975607     -22.01000000       0.00000000
  C       1.22975607     -22.01000000       0.00000000
  C       3.68926822     -22.01000000       0.00000000
  C       6.14878037     -22.01000000       0.00000000
  C       8.60829251     -22.01000000       0.00000000
  C      11.06780466     -22.01000000       0.00000000
